…
sex: Male=1 Female=2

ph.ecog: ECOG performance score (0=good 5=dead)

ph.karno: Karnofsky performance score as rated by physician

pat.karno: Karnofsky performance score as rated by patient

meal.cal: Calories consumed at meals

wt.loss: Weight loss in last six months

lung <- as_tibble(lung)
lung
## # A tibble: 228 x 10
##     inst  time status   age   sex ph.ecog ph.karno pat.karno meal.cal
##  * <dbl> <dbl>  <dbl> <dbl> <dbl>   <dbl>    <dbl>     <dbl>    <dbl>
##  1    3.  306.     2.   74.    1.      1.      90.      100.    1175.
##  2    3.  455.     2.   68.    1.      0.      90.       90.    1225.
##  3    3. 1010.     1.   56.    1.      0.      90.       90.      NA 
##  4    5.  210.     2.   57.    1.      1.      90.       60.    1150.
##  5    1.  883.     2.   60.    1.      0.     100.       90.      NA 
##  6   12. 1022.     1.   74.    1.      1.      50.       80.     513.
##  7    7.  310.     2.   68.    2.      2.      70.       60.     384.
##  8   11.  361.     2.   71.    2.      2.      60.       80.     538.
##  9    1.  218.     2.   53.    1.      1.      70.       80.     825.
## 10    7.  166.     2.   61.    1.      2.      70.       70.     271.
## # ... with 218 more rows, and 1 more variable: wt.loss <dbl>
…
